[
      {
      "self": "https://onthespot.atlassian.net/rest/api/3/user?accountId=557058:03cc7511-5d02-4114-bbad-a940b76dcc9e",
      "accountId": "557058:03cc7511-5d02-4114-bbad-a940b76dcc9e",
      "accountType": "atlassian",
      "avatarUrls":       {
         "48x48": "https://secure.gravatar.com/avatar/8d550e098b24108e7a28e86234fc5f27?d=https%3A%2F%2Favatar-management--avatars.us-west-2.prod.public.atl-paas.net%2Finitials%2FD-5.png",
         "24x24": "https://secure.gravatar.com/avatar/8d550e098b24108e7a28e86234fc5f27?d=https%3A%2F%2Favatar-management--avatars.us-west-2.prod.public.atl-paas.net%2Finitials%2FD-5.png",
         "16x16": "https://secure.gravatar.com/avatar/8d550e098b24108e7a28e86234fc5f27?d=https%3A%2F%2Favatar-management--avatars.us-west-2.prod.public.atl-paas.net%2Finitials%2FD-5.png",
         "32x32": "https://secure.gravatar.com/avatar/8d550e098b24108e7a28e86234fc5f27?d=https%3A%2F%2Favatar-management--avatars.us-west-2.prod.public.atl-paas.net%2Finitials%2FD-5.png"
      },
      "displayName": "DavidR",
      "active": false
   },
      {
      "self": "https://onthespot.atlassian.net/rest/api/3/user?accountId=557058:0867a421-a9ee-4659-801a-bc0ee4a4487e",
      "accountId": "557058:0867a421-a9ee-4659-801a-bc0ee4a4487e",
      "accountType": "app",
      "avatarUrls":       {
         "48x48": "https://secure.gravatar.com/avatar/ab3787cd0c16633ae050dff9d5ab15fc?d=https%3A%2F%2Favatar-management--avatars.us-west-2.prod.public.atl-paas.net%2Finitials%2FS-0.png",
         "24x24": "https://secure.gravatar.com/avatar/ab3787cd0c16633ae050dff9d5ab15fc?d=https%3A%2F%2Favatar-management--avatars.us-west-2.prod.public.atl-paas.net%2Finitials%2FS-0.png",
         "16x16": "https://secure.gravatar.com/avatar/ab3787cd0c16633ae050dff9d5ab15fc?d=https%3A%2F%2Favatar-management--avatars.us-west-2.prod.public.atl-paas.net%2Finitials%2FS-0.png",
         "32x32": "https://secure.gravatar.com/avatar/ab3787cd0c16633ae050dff9d5ab15fc?d=https%3A%2F%2Favatar-management--avatars.us-west-2.prod.public.atl-paas.net%2Finitials%2FS-0.png"
      },
      "displayName": "Slack",
      "active": true
   },
      {
      "self": "https://onthespot.atlassian.net/rest/api/3/user?accountId=557058:0b67b4e0-47b5-4be1-aa44-91a60017834e",
      "accountId": "557058:0b67b4e0-47b5-4be1-aa44-91a60017834e",
      "accountType": "app",
      "avatarUrls":       {
         "48x48": "https://secure.gravatar.com/avatar/ec770d5cd19ea8c7741d25556c0f90b8?d=https%3A%2F%2Favatar-management--avatars.us-west-2.prod.public.atl-paas.net%2Finitials%2FMJ-5.png",
         "24x24": "https://secure.gravatar.com/avatar/ec770d5cd19ea8c7741d25556c0f90b8?d=https%3A%2F%2Favatar-management--avatars.us-west-2.prod.public.atl-paas.net%2Finitials%2FMJ-5.png",
         "16x16": "https://secure.gravatar.com/avatar/ec770d5cd19ea8c7741d25556c0f90b8?d=https%3A%2F%2Favatar-management--avatars.us-west-2.prod.public.atl-paas.net%2Finitials%2FMJ-5.png",
         "32x32": "https://secure.gravatar.com/avatar/ec770d5cd19ea8c7741d25556c0f90b8?d=https%3A%2F%2Favatar-management--avatars.us-west-2.prod.public.atl-paas.net%2Finitials%2FMJ-5.png"
      },
      "displayName": "Microsoft Teams Plugin for Jira",
      "active": true
   },
      {
      "self": "https://onthespot.atlassian.net/rest/api/3/user?accountId=557058:139f6421-7d90-4dc5-b06f-e5e621f8ce17",
      "accountId": "557058:139f6421-7d90-4dc5-b06f-e5e621f8ce17",
      "accountType": "atlassian",
      "avatarUrls":       {
         "48x48": "https://secure.gravatar.com/avatar/530ca083ca49f6521aff97b97f41d2f2?d=https%3A%2F%2Favatar-management--avatars.us-west-2.prod.public.atl-paas.net%2Finitials%2FJH-4.png",
         "24x24": "https://secure.gravatar.com/avatar/530ca083ca49f6521aff97b97f41d2f2?d=https%3A%2F%2Favatar-management--avatars.us-west-2.prod.public.atl-paas.net%2Finitials%2FJH-4.png",
         "16x16": "https://secure.gravatar.com/avatar/530ca083ca49f6521aff97b97f41d2f2?d=https%3A%2F%2Favatar-management--avatars.us-west-2.prod.public.atl-paas.net%2Finitials%2FJH-4.png",
         "32x32": "https://secure.gravatar.com/avatar/530ca083ca49f6521aff97b97f41d2f2?d=https%3A%2F%2Favatar-management--avatars.us-west-2.prod.public.atl-paas.net%2Finitials%2FJH-4.png"
      },
      "displayName": "Jose Hernandez",
      "active": true,
      "timeZone": "Europe/Madrid",
      "locale": "es_ES"
   },
      {
      "self": "https://onthespot.atlassian.net/rest/api/3/user?accountId=557058:145c2721-36ed-4b8a-86a2-e67c711f764c",
      "accountId": "557058:145c2721-36ed-4b8a-86a2-e67c711f764c",
      "accountType": "atlassian",
      "avatarUrls":       {
         "48x48": "https://secure.gravatar.com/avatar/b9db991810efbd29993497df8374a604?d=https%3A%2F%2Favatar-management--avatars.us-west-2.prod.public.atl-paas.net%2Finitials%2FV-0.png",
         "24x24": "https://secure.gravatar.com/avatar/b9db991810efbd29993497df8374a604?d=https%3A%2F%2Favatar-management--avatars.us-west-2.prod.public.atl-paas.net%2Finitials%2FV-0.png",
         "16x16": "https://secure.gravatar.com/avatar/b9db991810efbd29993497df8374a604?d=https%3A%2F%2Favatar-management--avatars.us-west-2.prod.public.atl-paas.net%2Finitials%2FV-0.png",
         "32x32": "https://secure.gravatar.com/avatar/b9db991810efbd29993497df8374a604?d=https%3A%2F%2Favatar-management--avatars.us-west-2.prod.public.atl-paas.net%2Finitials%2FV-0.png"
      },
      "displayName": "ValentinS",
      "active": false
   },
      {
      "self": "https://onthespot.atlassian.net/rest/api/3/user?accountId=557058:16033b5f-eebb-4642-83e3-76fb249bd6c2",
      "accountId": "557058:16033b5f-eebb-4642-83e3-76fb249bd6c2",
      "accountType": "atlassian",
      "avatarUrls":       {
         "48x48": "https://avatar-management--avatars.us-west-2.prod.public.atl-paas.net/557058:16033b5f-eebb-4642-83e3-76fb249bd6c2/81e401cd-3dc5-4175-ad3b-c91fd287a5f0/48",
         "24x24": "https://avatar-management--avatars.us-west-2.prod.public.atl-paas.net/557058:16033b5f-eebb-4642-83e3-76fb249bd6c2/81e401cd-3dc5-4175-ad3b-c91fd287a5f0/24",
         "16x16": "https://avatar-management--avatars.us-west-2.prod.public.atl-paas.net/557058:16033b5f-eebb-4642-83e3-76fb249bd6c2/81e401cd-3dc5-4175-ad3b-c91fd287a5f0/16",
         "32x32": "https://avatar-management--avatars.us-west-2.prod.public.atl-paas.net/557058:16033b5f-eebb-4642-83e3-76fb249bd6c2/81e401cd-3dc5-4175-ad3b-c91fd287a5f0/32"
      },
      "displayName": "Jose Luis Bello Manteiga",
      "active": true,
      "timeZone": "Europe/Madrid"
   },
      {
      "self": "https://onthespot.atlassian.net/rest/api/3/user?accountId=557058:214cdd6a-ff93-4d8b-838b-62dfcf1a2a71",
      "accountId": "557058:214cdd6a-ff93-4d8b-838b-62dfcf1a2a71",
      "accountType": "app",
      "avatarUrls":       {
         "48x48": "https://secure.gravatar.com/avatar/5f14d72ea4c4ebb05e46175191444f71?d=https%3A%2F%2Favatar-management--avatars.us-west-2.prod.public.atl-paas.net%2Finitials%2FT-2.png",
         "24x24": "https://secure.gravatar.com/avatar/5f14d72ea4c4ebb05e46175191444f71?d=https%3A%2F%2Favatar-management--avatars.us-west-2.prod.public.atl-paas.net%2Finitials%2FT-2.png",
         "16x16": "https://secure.gravatar.com/avatar/5f14d72ea4c4ebb05e46175191444f71?d=https%3A%2F%2Favatar-management--avatars.us-west-2.prod.public.atl-paas.net%2Finitials%2FT-2.png",
         "32x32": "https://secure.gravatar.com/avatar/5f14d72ea4c4ebb05e46175191444f71?d=https%3A%2F%2Favatar-management--avatars.us-west-2.prod.public.atl-paas.net%2Finitials%2FT-2.png"
      },
      "displayName": "Trello",
      "active": true
   },
      {
      "self": "https://onthespot.atlassian.net/rest/api/3/user?accountId=557058:271b23f7-5117-474e-9569-02927526db34",
      "accountId": "557058:271b23f7-5117-474e-9569-02927526db34",
      "accountType": "atlassian",
      "avatarUrls":       {
         "48x48": "https://secure.gravatar.com/avatar/fd3b874c62dcee21d3c9be0ef7bd96c3?d=https%3A%2F%2Favatar-management--avatars.us-west-2.prod.public.atl-paas.net%2Finitials%2FJC-0.png",
         "24x24": "https://secure.gravatar.com/avatar/fd3b874c62dcee21d3c9be0ef7bd96c3?d=https%3A%2F%2Favatar-management--avatars.us-west-2.prod.public.atl-paas.net%2Finitials%2FJC-0.png",
         "16x16": "https://secure.gravatar.com/avatar/fd3b874c62dcee21d3c9be0ef7bd96c3?d=https%3A%2F%2Favatar-management--avatars.us-west-2.prod.public.atl-paas.net%2Finitials%2FJC-0.png",
         "32x32": "https://secure.gravatar.com/avatar/fd3b874c62dcee21d3c9be0ef7bd96c3?d=https%3A%2F%2Favatar-management--avatars.us-west-2.prod.public.atl-paas.net%2Finitials%2FJC-0.png"
      },
      "displayName": "Juan Carlos Serrano Cancela",
      "active": false,
      "locale": "en"
   },
      {
      "self": "https://onthespot.atlassian.net/rest/api/3/user?accountId=557058:39f1ba60-ebc7-471a-901e-63a8bbb6fc32",
      "accountId": "557058:39f1ba60-ebc7-471a-901e-63a8bbb6fc32",
      "accountType": "atlassian",
      "avatarUrls":       {
         "48x48": "https://avatar-management--avatars.us-west-2.prod.public.atl-paas.net/557058:39f1ba60-ebc7-471a-901e-63a8bbb6fc32/589c7b28-089f-4013-b6fb-7a7a48b365cc/48",
         "24x24": "https://avatar-management--avatars.us-west-2.prod.public.atl-paas.net/557058:39f1ba60-ebc7-471a-901e-63a8bbb6fc32/589c7b28-089f-4013-b6fb-7a7a48b365cc/24",
         "16x16": "https://avatar-management--avatars.us-west-2.prod.public.atl-paas.net/557058:39f1ba60-ebc7-471a-901e-63a8bbb6fc32/589c7b28-089f-4013-b6fb-7a7a48b365cc/16",
         "32x32": "https://avatar-management--avatars.us-west-2.prod.public.atl-paas.net/557058:39f1ba60-ebc7-471a-901e-63a8bbb6fc32/589c7b28-089f-4013-b6fb-7a7a48b365cc/32"
      },
      "displayName": "Testing Telefonica",
      "active": false,
      "timeZone": "Europe/Madrid",
      "locale": "es_ES"
   },
      {
      "self": "https://onthespot.atlassian.net/rest/api/3/user?accountId=557058:3c015daa-a050-448a-804e-ab520973e342",
      "accountId": "557058:3c015daa-a050-448a-804e-ab520973e342",
      "accountType": "atlassian",
      "avatarUrls":       {
         "48x48": "https://secure.gravatar.com/avatar/a69258bad04ab78439781cd9cfafffaa?d=https%3A%2F%2Favatar-management--avatars.us-west-2.prod.public.atl-paas.net%2Finitials%2FS-0.png",
         "24x24": "https://secure.gravatar.com/avatar/a69258bad04ab78439781cd9cfafffaa?d=https%3A%2F%2Favatar-management--avatars.us-west-2.prod.public.atl-paas.net%2Finitials%2FS-0.png",
         "16x16": "https://secure.gravatar.com/avatar/a69258bad04ab78439781cd9cfafffaa?d=https%3A%2F%2Favatar-management--avatars.us-west-2.prod.public.atl-paas.net%2Finitials%2FS-0.png",
         "32x32": "https://secure.gravatar.com/avatar/a69258bad04ab78439781cd9cfafffaa?d=https%3A%2F%2Favatar-management--avatars.us-west-2.prod.public.atl-paas.net%2Finitials%2FS-0.png"
      },
      "displayName": "SantiagoM",
      "active": false
   },
      {
      "self": "https://onthespot.atlassian.net/rest/api/3/user?accountId=557058:3d601d50-8021-49ca-8f5c-183fb96c83e7",
      "accountId": "557058:3d601d50-8021-49ca-8f5c-183fb96c83e7",
      "accountType": "atlassian",
      "avatarUrls":       {
         "48x48": "https://secure.gravatar.com/avatar/9b7496a95e0c0b5e1e262ca2124fee39?d=https%3A%2F%2Favatar-management--avatars.us-west-2.prod.public.atl-paas.net%2Finitials%2FTR-1.png",
         "24x24": "https://secure.gravatar.com/avatar/9b7496a95e0c0b5e1e262ca2124fee39?d=https%3A%2F%2Favatar-management--avatars.us-west-2.prod.public.atl-paas.net%2Finitials%2FTR-1.png",
         "16x16": "https://secure.gravatar.com/avatar/9b7496a95e0c0b5e1e262ca2124fee39?d=https%3A%2F%2Favatar-management--avatars.us-west-2.prod.public.atl-paas.net%2Finitials%2FTR-1.png",
         "32x32": "https://secure.gravatar.com/avatar/9b7496a95e0c0b5e1e262ca2124fee39?d=https%3A%2F%2Favatar-management--avatars.us-west-2.prod.public.atl-paas.net%2Finitials%2FTR-1.png"
      },
      "displayName": "Trinidad Diez Rojo",
      "active": false
   },
      {
      "self": "https://onthespot.atlassian.net/rest/api/3/user?accountId=557058:3db856bc-2b14-44b5-b31b-32cda283c9a2",
      "accountId": "557058:3db856bc-2b14-44b5-b31b-32cda283c9a2",
      "accountType": "atlassian",
      "avatarUrls":       {
         "48x48": "https://secure.gravatar.com/avatar/28d1fb6e97556cc4a9845229f0667729?d=https%3A%2F%2Favatar-management--avatars.us-west-2.prod.public.atl-paas.net%2Finitials%2FP-3.png",
         "24x24": "https://secure.gravatar.com/avatar/28d1fb6e97556cc4a9845229f0667729?d=https%3A%2F%2Favatar-management--avatars.us-west-2.prod.public.atl-paas.net%2Finitials%2FP-3.png",
         "16x16": "https://secure.gravatar.com/avatar/28d1fb6e97556cc4a9845229f0667729?d=https%3A%2F%2Favatar-management--avatars.us-west-2.prod.public.atl-paas.net%2Finitials%2FP-3.png",
         "32x32": "https://secure.gravatar.com/avatar/28d1fb6e97556cc4a9845229f0667729?d=https%3A%2F%2Favatar-management--avatars.us-west-2.prod.public.atl-paas.net%2Finitials%2FP-3.png"
      },
      "displayName": "productoo",
      "active": false,
      "locale": "en_US"
   },
      {
      "self": "https://onthespot.atlassian.net/rest/api/3/user?accountId=557058:3fb9f292-19f5-47ea-84be-ad5b5bd09bf7",
      "accountId": "557058:3fb9f292-19f5-47ea-84be-ad5b5bd09bf7",
      "accountType": "atlassian",
      "avatarUrls":       {
         "48x48": "https://secure.gravatar.com/avatar/cc26130137758507bbae48fe5998509f?d=https%3A%2F%2Favatar-management--avatars.us-west-2.prod.public.atl-paas.net%2Finitials%2FP-0.png",
         "24x24": "https://secure.gravatar.com/avatar/cc26130137758507bbae48fe5998509f?d=https%3A%2F%2Favatar-management--avatars.us-west-2.prod.public.atl-paas.net%2Finitials%2FP-0.png",
         "16x16": "https://secure.gravatar.com/avatar/cc26130137758507bbae48fe5998509f?d=https%3A%2F%2Favatar-management--avatars.us-west-2.prod.public.atl-paas.net%2Finitials%2FP-0.png",
         "32x32": "https://secure.gravatar.com/avatar/cc26130137758507bbae48fe5998509f?d=https%3A%2F%2Favatar-management--avatars.us-west-2.prod.public.atl-paas.net%2Finitials%2FP-0.png"
      },
      "displayName": "productoots@gmail.com",
      "active": false,
      "timeZone": "Europe/Paris"
   },
      {
      "self": "https://onthespot.atlassian.net/rest/api/3/user?accountId=557058:40cd229c-74b4-422d-b6d9-205e8554c9f9",
      "accountId": "557058:40cd229c-74b4-422d-b6d9-205e8554c9f9",
      "accountType": "atlassian",
      "avatarUrls":       {
         "48x48": "https://secure.gravatar.com/avatar/dc3efd3af20a878ef14faba465b5ab23?d=https%3A%2F%2Favatar-management--avatars.us-west-2.prod.public.atl-paas.net%2Finitials%2FS-1.png",
         "24x24": "https://secure.gravatar.com/avatar/dc3efd3af20a878ef14faba465b5ab23?d=https%3A%2F%2Favatar-management--avatars.us-west-2.prod.public.atl-paas.net%2Finitials%2FS-1.png",
         "16x16": "https://secure.gravatar.com/avatar/dc3efd3af20a878ef14faba465b5ab23?d=https%3A%2F%2Favatar-management--avatars.us-west-2.prod.public.atl-paas.net%2Finitials%2FS-1.png",
         "32x32": "https://secure.gravatar.com/avatar/dc3efd3af20a878ef14faba465b5ab23?d=https%3A%2F%2Favatar-management--avatars.us-west-2.prod.public.atl-paas.net%2Finitials%2FS-1.png"
      },
      "displayName": "SergioC",
      "active": false
   },
      {
      "self": "https://onthespot.atlassian.net/rest/api/3/user?accountId=557058:449a2dd1-4330-471c-a6ea-4899081485b8",
      "accountId": "557058:449a2dd1-4330-471c-a6ea-4899081485b8",
      "accountType": "atlassian",
      "avatarUrls":       {
         "48x48": "https://secure.gravatar.com/avatar/2254702f6105d29c4a04ff861e841721?d=https%3A%2F%2Favatar-management--avatars.us-west-2.prod.public.atl-paas.net%2Finitials%2FM-3.png",
         "24x24": "https://secure.gravatar.com/avatar/2254702f6105d29c4a04ff861e841721?d=https%3A%2F%2Favatar-management--avatars.us-west-2.prod.public.atl-paas.net%2Finitials%2FM-3.png",
         "16x16": "https://secure.gravatar.com/avatar/2254702f6105d29c4a04ff861e841721?d=https%3A%2F%2Favatar-management--avatars.us-west-2.prod.public.atl-paas.net%2Finitials%2FM-3.png",
         "32x32": "https://secure.gravatar.com/avatar/2254702f6105d29c4a04ff861e841721?d=https%3A%2F%2Favatar-management--avatars.us-west-2.prod.public.atl-paas.net%2Finitials%2FM-3.png"
      },
      "displayName": "mbaronetidN",
      "active": false
   },
      {
      "self": "https://onthespot.atlassian.net/rest/api/3/user?accountId=557058:49856632-e3f2-47d9-8ee1-e3ed75ad8b50",
      "accountId": "557058:49856632-e3f2-47d9-8ee1-e3ed75ad8b50",
      "accountType": "atlassian",
      "avatarUrls":       {
         "48x48": "https://avatar-management--avatars.us-west-2.prod.public.atl-paas.net/557058:49856632-e3f2-47d9-8ee1-e3ed75ad8b50/74340114-8aa2-48cc-94a2-9aeb42a3c53a/48",
         "24x24": "https://avatar-management--avatars.us-west-2.prod.public.atl-paas.net/557058:49856632-e3f2-47d9-8ee1-e3ed75ad8b50/74340114-8aa2-48cc-94a2-9aeb42a3c53a/24",
         "16x16": "https://avatar-management--avatars.us-west-2.prod.public.atl-paas.net/557058:49856632-e3f2-47d9-8ee1-e3ed75ad8b50/74340114-8aa2-48cc-94a2-9aeb42a3c53a/16",
         "32x32": "https://avatar-management--avatars.us-west-2.prod.public.atl-paas.net/557058:49856632-e3f2-47d9-8ee1-e3ed75ad8b50/74340114-8aa2-48cc-94a2-9aeb42a3c53a/32"
      },
      "displayName": "Paula Jiménez",
      "active": true,
      "locale": "es_ES"
   },
      {
      "self": "https://onthespot.atlassian.net/rest/api/3/user?accountId=557058:4b74457d-7de5-43a5-b8fd-355087270c60",
      "accountId": "557058:4b74457d-7de5-43a5-b8fd-355087270c60",
      "accountType": "atlassian",
      "avatarUrls":       {
         "48x48": "https://secure.gravatar.com/avatar/5f5bff29ca4a943caaf5f6e91c784834?d=https%3A%2F%2Favatar-management--avatars.us-west-2.prod.public.atl-paas.net%2Finitials%2FDP-2.png",
         "24x24": "https://secure.gravatar.com/avatar/5f5bff29ca4a943caaf5f6e91c784834?d=https%3A%2F%2Favatar-management--avatars.us-west-2.prod.public.atl-paas.net%2Finitials%2FDP-2.png",
         "16x16": "https://secure.gravatar.com/avatar/5f5bff29ca4a943caaf5f6e91c784834?d=https%3A%2F%2Favatar-management--avatars.us-west-2.prod.public.atl-paas.net%2Finitials%2FDP-2.png",
         "32x32": "https://secure.gravatar.com/avatar/5f5bff29ca4a943caaf5f6e91c784834?d=https%3A%2F%2Favatar-management--avatars.us-west-2.prod.public.atl-paas.net%2Finitials%2FDP-2.png"
      },
      "displayName": "David Merino Pérez",
      "active": true
   },
      {
      "self": "https://onthespot.atlassian.net/rest/api/3/user?accountId=557058:563b6ba3-3d98-463d-a746-5ab64f2ca3a3",
      "accountId": "557058:563b6ba3-3d98-463d-a746-5ab64f2ca3a3",
      "accountType": "atlassian",
      "avatarUrls":       {
         "48x48": "https://avatar-management--avatars.us-west-2.prod.public.atl-paas.net/557058:563b6ba3-3d98-463d-a746-5ab64f2ca3a3/3d0bbf49-4d5f-40f4-bde2-b363ae4cb882/48",
         "24x24": "https://avatar-management--avatars.us-west-2.prod.public.atl-paas.net/557058:563b6ba3-3d98-463d-a746-5ab64f2ca3a3/3d0bbf49-4d5f-40f4-bde2-b363ae4cb882/24",
         "16x16": "https://avatar-management--avatars.us-west-2.prod.public.atl-paas.net/557058:563b6ba3-3d98-463d-a746-5ab64f2ca3a3/3d0bbf49-4d5f-40f4-bde2-b363ae4cb882/16",
         "32x32": "https://avatar-management--avatars.us-west-2.prod.public.atl-paas.net/557058:563b6ba3-3d98-463d-a746-5ab64f2ca3a3/3d0bbf49-4d5f-40f4-bde2-b363ae4cb882/32"
      },
      "displayName": "David Garduño Navarro",
      "active": true,
      "timeZone": "Europe/Madrid",
      "locale": "es_ES"
   },
      {
      "self": "https://onthespot.atlassian.net/rest/api/3/user?accountId=557058:60a707fb-8250-4607-9e87-cbbae030f722",
      "accountId": "557058:60a707fb-8250-4607-9e87-cbbae030f722",
      "accountType": "app",
      "avatarUrls":       {
         "48x48": "https://secure.gravatar.com/avatar/bcb1cdfff4a63ce1a2085ff81d9240fc?d=https%3A%2F%2Favatar-management--avatars.us-west-2.prod.public.atl-paas.net%2Finitials%2FS-4.png",
         "24x24": "https://secure.gravatar.com/avatar/bcb1cdfff4a63ce1a2085ff81d9240fc?d=https%3A%2F%2Favatar-management--avatars.us-west-2.prod.public.atl-paas.net%2Finitials%2FS-4.png",
         "16x16": "https://secure.gravatar.com/avatar/bcb1cdfff4a63ce1a2085ff81d9240fc?d=https%3A%2F%2Favatar-management--avatars.us-west-2.prod.public.atl-paas.net%2Finitials%2FS-4.png",
         "32x32": "https://secure.gravatar.com/avatar/bcb1cdfff4a63ce1a2085ff81d9240fc?d=https%3A%2F%2Favatar-management--avatars.us-west-2.prod.public.atl-paas.net%2Finitials%2FS-4.png"
      },
      "displayName": "Sketch",
      "active": true
   },
      {
      "self": "https://onthespot.atlassian.net/rest/api/3/user?accountId=557058:6b8c1610-448a-4b7d-89de-27d082667aed",
      "accountId": "557058:6b8c1610-448a-4b7d-89de-27d082667aed",
      "accountType": "atlassian",
      "avatarUrls":       {
         "48x48": "https://secure.gravatar.com/avatar/dce970387d5e807fb2a9a10ee184f9f8?d=https%3A%2F%2Favatar-management--avatars.us-west-2.prod.public.atl-paas.net%2Finitials%2FV-4.png",
         "24x24": "https://secure.gravatar.com/avatar/dce970387d5e807fb2a9a10ee184f9f8?d=https%3A%2F%2Favatar-management--avatars.us-west-2.prod.public.atl-paas.net%2Finitials%2FV-4.png",
         "16x16": "https://secure.gravatar.com/avatar/dce970387d5e807fb2a9a10ee184f9f8?d=https%3A%2F%2Favatar-management--avatars.us-west-2.prod.public.atl-paas.net%2Finitials%2FV-4.png",
         "32x32": "https://secure.gravatar.com/avatar/dce970387d5e807fb2a9a10ee184f9f8?d=https%3A%2F%2Favatar-management--avatars.us-west-2.prod.public.atl-paas.net%2Finitials%2FV-4.png"
      },
      "displayName": "visitante",
      "active": false
   },
      {
      "self": "https://onthespot.atlassian.net/rest/api/3/user?accountId=557058:6c25af74-c66b-4a45-8353-b7f631683094",
      "accountId": "557058:6c25af74-c66b-4a45-8353-b7f631683094",
      "accountType": "atlassian",
      "avatarUrls":       {
         "48x48": "https://avatar-management--avatars.us-west-2.prod.public.atl-paas.net/557058:6c25af74-c66b-4a45-8353-b7f631683094/ad89b40a-87f8-4dec-bffe-bff373ed5db0/48",
         "24x24": "https://avatar-management--avatars.us-west-2.prod.public.atl-paas.net/557058:6c25af74-c66b-4a45-8353-b7f631683094/ad89b40a-87f8-4dec-bffe-bff373ed5db0/24",
         "16x16": "https://avatar-management--avatars.us-west-2.prod.public.atl-paas.net/557058:6c25af74-c66b-4a45-8353-b7f631683094/ad89b40a-87f8-4dec-bffe-bff373ed5db0/16",
         "32x32": "https://avatar-management--avatars.us-west-2.prod.public.atl-paas.net/557058:6c25af74-c66b-4a45-8353-b7f631683094/ad89b40a-87f8-4dec-bffe-bff373ed5db0/32"
      },
      "displayName": "Jorge García Tejerina",
      "active": false,
      "locale": "es_ES"
   },
      {
      "self": "https://onthespot.atlassian.net/rest/api/3/user?accountId=557058:71a47d7c-88c1-4a7b-bc6d-ef3e2565283a",
      "accountId": "557058:71a47d7c-88c1-4a7b-bc6d-ef3e2565283a",
      "accountType": "atlassian",
      "avatarUrls":       {
         "48x48": "https://avatar-management--avatars.us-west-2.prod.public.atl-paas.net/557058:71a47d7c-88c1-4a7b-bc6d-ef3e2565283a/7acf9c5f-509f-43dc-b453-b91c11dfa406/48",
         "24x24": "https://avatar-management--avatars.us-west-2.prod.public.atl-paas.net/557058:71a47d7c-88c1-4a7b-bc6d-ef3e2565283a/7acf9c5f-509f-43dc-b453-b91c11dfa406/24",
         "16x16": "https://avatar-management--avatars.us-west-2.prod.public.atl-paas.net/557058:71a47d7c-88c1-4a7b-bc6d-ef3e2565283a/7acf9c5f-509f-43dc-b453-b91c11dfa406/16",
         "32x32": "https://avatar-management--avatars.us-west-2.prod.public.atl-paas.net/557058:71a47d7c-88c1-4a7b-bc6d-ef3e2565283a/7acf9c5f-509f-43dc-b453-b91c11dfa406/32"
      },
      "displayName": "soniacarretero NA",
      "active": true,
      "locale": "es_ES"
   },
      {
      "self": "https://onthespot.atlassian.net/rest/api/3/user?accountId=557058:79651829-74fd-4b6f-9254-8f6fbce8f98d",
      "accountId": "557058:79651829-74fd-4b6f-9254-8f6fbce8f98d",
      "accountType": "atlassian",
      "avatarUrls":       {
         "48x48": "https://avatar-management--avatars.us-west-2.prod.public.atl-paas.net/557058:79651829-74fd-4b6f-9254-8f6fbce8f98d/307be25d-104f-453c-ac2e-3bcb734bbe24/48",
         "24x24": "https://avatar-management--avatars.us-west-2.prod.public.atl-paas.net/557058:79651829-74fd-4b6f-9254-8f6fbce8f98d/307be25d-104f-453c-ac2e-3bcb734bbe24/24",
         "16x16": "https://avatar-management--avatars.us-west-2.prod.public.atl-paas.net/557058:79651829-74fd-4b6f-9254-8f6fbce8f98d/307be25d-104f-453c-ac2e-3bcb734bbe24/16",
         "32x32": "https://avatar-management--avatars.us-west-2.prod.public.atl-paas.net/557058:79651829-74fd-4b6f-9254-8f6fbce8f98d/307be25d-104f-453c-ac2e-3bcb734bbe24/32"
      },
      "displayName": "Manuel Ferrero",
      "active": true,
      "locale": "en_US"
   },
      {
      "self": "https://onthespot.atlassian.net/rest/api/3/user?accountId=557058:7a7de54f-ebf3-4927-8218-9ed2487a8f1d",
      "accountId": "557058:7a7de54f-ebf3-4927-8218-9ed2487a8f1d",
      "accountType": "atlassian",
      "avatarUrls":       {
         "48x48": "https://secure.gravatar.com/avatar/950617c122f9a0a90d8df059699d72c7?d=https%3A%2F%2Favatar-management--avatars.us-west-2.prod.public.atl-paas.net%2Finitials%2FJ-4.png",
         "24x24": "https://secure.gravatar.com/avatar/950617c122f9a0a90d8df059699d72c7?d=https%3A%2F%2Favatar-management--avatars.us-west-2.prod.public.atl-paas.net%2Finitials%2FJ-4.png",
         "16x16": "https://secure.gravatar.com/avatar/950617c122f9a0a90d8df059699d72c7?d=https%3A%2F%2Favatar-management--avatars.us-west-2.prod.public.atl-paas.net%2Finitials%2FJ-4.png",
         "32x32": "https://secure.gravatar.com/avatar/950617c122f9a0a90d8df059699d72c7?d=https%3A%2F%2Favatar-management--avatars.us-west-2.prod.public.atl-paas.net%2Finitials%2FJ-4.png"
      },
      "displayName": "JulioR",
      "active": false
   },
      {
      "self": "https://onthespot.atlassian.net/rest/api/3/user?accountId=557058:7df406fb-9345-49a5-bccf-89920c72976d",
      "accountId": "557058:7df406fb-9345-49a5-bccf-89920c72976d",
      "accountType": "atlassian",
      "avatarUrls":       {
         "48x48": "https://secure.gravatar.com/avatar/f1765cad4196261d95afb16f15614eae?d=https%3A%2F%2Favatar-management--avatars.us-west-2.prod.public.atl-paas.net%2Finitials%2FLV-5.png",
         "24x24": "https://secure.gravatar.com/avatar/f1765cad4196261d95afb16f15614eae?d=https%3A%2F%2Favatar-management--avatars.us-west-2.prod.public.atl-paas.net%2Finitials%2FLV-5.png",
         "16x16": "https://secure.gravatar.com/avatar/f1765cad4196261d95afb16f15614eae?d=https%3A%2F%2Favatar-management--avatars.us-west-2.prod.public.atl-paas.net%2Finitials%2FLV-5.png",
         "32x32": "https://secure.gravatar.com/avatar/f1765cad4196261d95afb16f15614eae?d=https%3A%2F%2Favatar-management--avatars.us-west-2.prod.public.atl-paas.net%2Finitials%2FLV-5.png"
      },
      "displayName": "luis vargas",
      "active": true,
      "locale": "en_US"
   },
      {
      "self": "https://onthespot.atlassian.net/rest/api/3/user?accountId=557058:84889445-91f3-496d-86bd-9a19f4ef56d8",
      "accountId": "557058:84889445-91f3-496d-86bd-9a19f4ef56d8",
      "accountType": "atlassian",
      "avatarUrls":       {
         "48x48": "https://secure.gravatar.com/avatar/513a854b8c7dc0244e9cc169428f4790?d=https%3A%2F%2Favatar-management--avatars.us-west-2.prod.public.atl-paas.net%2Finitials%2FF-1.png",
         "24x24": "https://secure.gravatar.com/avatar/513a854b8c7dc0244e9cc169428f4790?d=https%3A%2F%2Favatar-management--avatars.us-west-2.prod.public.atl-paas.net%2Finitials%2FF-1.png",
         "16x16": "https://secure.gravatar.com/avatar/513a854b8c7dc0244e9cc169428f4790?d=https%3A%2F%2Favatar-management--avatars.us-west-2.prod.public.atl-paas.net%2Finitials%2FF-1.png",
         "32x32": "https://secure.gravatar.com/avatar/513a854b8c7dc0244e9cc169428f4790?d=https%3A%2F%2Favatar-management--avatars.us-west-2.prod.public.atl-paas.net%2Finitials%2FF-1.png"
      },
      "displayName": "felix.diazfernandez",
      "active": false,
      "locale": "en_US"
   },
      {
      "self": "https://onthespot.atlassian.net/rest/api/3/user?accountId=557058:86890b1a-58c8-4035-bfeb-d3635bc94c53",
      "accountId": "557058:86890b1a-58c8-4035-bfeb-d3635bc94c53",
      "accountType": "atlassian",
      "avatarUrls":       {
         "48x48": "https://secure.gravatar.com/avatar/74efaed90c72ce80d08e5fe62bb1b1d5?d=https%3A%2F%2Favatar-management--avatars.us-west-2.prod.public.atl-paas.net%2Finitials%2FDL-5.png",
         "24x24": "https://secure.gravatar.com/avatar/74efaed90c72ce80d08e5fe62bb1b1d5?d=https%3A%2F%2Favatar-management--avatars.us-west-2.prod.public.atl-paas.net%2Finitials%2FDL-5.png",
         "16x16": "https://secure.gravatar.com/avatar/74efaed90c72ce80d08e5fe62bb1b1d5?d=https%3A%2F%2Favatar-management--avatars.us-west-2.prod.public.atl-paas.net%2Finitials%2FDL-5.png",
         "32x32": "https://secure.gravatar.com/avatar/74efaed90c72ce80d08e5fe62bb1b1d5?d=https%3A%2F%2Favatar-management--avatars.us-west-2.prod.public.atl-paas.net%2Finitials%2FDL-5.png"
      },
      "displayName": "Denys Quiroz Labarca",
      "active": true,
      "timeZone": "Europe/Madrid",
      "locale": "es_ES"
   },
      {
      "self": "https://onthespot.atlassian.net/rest/api/3/user?accountId=557058:87a99e2c-f532-48ff-8e09-4dae5162d20a",
      "accountId": "557058:87a99e2c-f532-48ff-8e09-4dae5162d20a",
      "accountType": "atlassian",
      "avatarUrls":       {
         "48x48": "https://secure.gravatar.com/avatar/d1061c705cad656b400f4dab27f9209a?d=https%3A%2F%2Favatar-management--avatars.us-west-2.prod.public.atl-paas.net%2Finitials%2FEP-4.png",
         "24x24": "https://secure.gravatar.com/avatar/d1061c705cad656b400f4dab27f9209a?d=https%3A%2F%2Favatar-management--avatars.us-west-2.prod.public.atl-paas.net%2Finitials%2FEP-4.png",
         "16x16": "https://secure.gravatar.com/avatar/d1061c705cad656b400f4dab27f9209a?d=https%3A%2F%2Favatar-management--avatars.us-west-2.prod.public.atl-paas.net%2Finitials%2FEP-4.png",
         "32x32": "https://secure.gravatar.com/avatar/d1061c705cad656b400f4dab27f9209a?d=https%3A%2F%2Favatar-management--avatars.us-west-2.prod.public.atl-paas.net%2Finitials%2FEP-4.png"
      },
      "displayName": "enrique torrejon perez",
      "active": false
   },
      {
      "self": "https://onthespot.atlassian.net/rest/api/3/user?accountId=557058:8f471414-1af2-40f7-8574-c8fb613cc2dd",
      "accountId": "557058:8f471414-1af2-40f7-8574-c8fb613cc2dd",
      "accountType": "atlassian",
      "avatarUrls":       {
         "48x48": "https://avatar-management--avatars.us-west-2.prod.public.atl-paas.net/557058:8f471414-1af2-40f7-8574-c8fb613cc2dd/d09ee0a4-6911-437e-8b32-61caca5ffcc6/48",
         "24x24": "https://avatar-management--avatars.us-west-2.prod.public.atl-paas.net/557058:8f471414-1af2-40f7-8574-c8fb613cc2dd/d09ee0a4-6911-437e-8b32-61caca5ffcc6/24",
         "16x16": "https://avatar-management--avatars.us-west-2.prod.public.atl-paas.net/557058:8f471414-1af2-40f7-8574-c8fb613cc2dd/d09ee0a4-6911-437e-8b32-61caca5ffcc6/16",
         "32x32": "https://avatar-management--avatars.us-west-2.prod.public.atl-paas.net/557058:8f471414-1af2-40f7-8574-c8fb613cc2dd/d09ee0a4-6911-437e-8b32-61caca5ffcc6/32"
      },
      "displayName": "Jorge Garcia Tejerina",
      "active": true,
      "locale": "es_ES"
   },
      {
      "self": "https://onthespot.atlassian.net/rest/api/3/user?accountId=557058:8f68c291-9539-497c-806b-b11748c5126e",
      "accountId": "557058:8f68c291-9539-497c-806b-b11748c5126e",
      "accountType": "atlassian",
      "avatarUrls":       {
         "48x48": "https://secure.gravatar.com/avatar/5f421f9f6c3a33846571118eab9b5ed6?d=https%3A%2F%2Favatar-management--avatars.us-west-2.prod.public.atl-paas.net%2Finitials%2FM-1.png",
         "24x24": "https://secure.gravatar.com/avatar/5f421f9f6c3a33846571118eab9b5ed6?d=https%3A%2F%2Favatar-management--avatars.us-west-2.prod.public.atl-paas.net%2Finitials%2FM-1.png",
         "16x16": "https://secure.gravatar.com/avatar/5f421f9f6c3a33846571118eab9b5ed6?d=https%3A%2F%2Favatar-management--avatars.us-west-2.prod.public.atl-paas.net%2Finitials%2FM-1.png",
         "32x32": "https://secure.gravatar.com/avatar/5f421f9f6c3a33846571118eab9b5ed6?d=https%3A%2F%2Favatar-management--avatars.us-west-2.prod.public.atl-paas.net%2Finitials%2FM-1.png"
      },
      "displayName": "martamarranz",
      "active": false
   },
      {
      "self": "https://onthespot.atlassian.net/rest/api/3/user?accountId=557058:93dd0a51-975f-4a2f-b2d8-4ec27ff25ef8",
      "accountId": "557058:93dd0a51-975f-4a2f-b2d8-4ec27ff25ef8",
      "accountType": "atlassian",
      "avatarUrls":       {
         "48x48": "https://avatar-management--avatars.us-west-2.prod.public.atl-paas.net/557058:93dd0a51-975f-4a2f-b2d8-4ec27ff25ef8/8f31ce49-e750-41f2-9600-bdc92bbac5bf/48",
         "24x24": "https://avatar-management--avatars.us-west-2.prod.public.atl-paas.net/557058:93dd0a51-975f-4a2f-b2d8-4ec27ff25ef8/8f31ce49-e750-41f2-9600-bdc92bbac5bf/24",
         "16x16": "https://avatar-management--avatars.us-west-2.prod.public.atl-paas.net/557058:93dd0a51-975f-4a2f-b2d8-4ec27ff25ef8/8f31ce49-e750-41f2-9600-bdc92bbac5bf/16",
         "32x32": "https://avatar-management--avatars.us-west-2.prod.public.atl-paas.net/557058:93dd0a51-975f-4a2f-b2d8-4ec27ff25ef8/8f31ce49-e750-41f2-9600-bdc92bbac5bf/32"
      },
      "displayName": "EDUARDO ESPINOZA",
      "active": false
   },
      {
      "self": "https://onthespot.atlassian.net/rest/api/3/user?accountId=557058:950f9f5b-3d6d-4e1d-954a-21367ae9ac75",
      "accountId": "557058:950f9f5b-3d6d-4e1d-954a-21367ae9ac75",
      "accountType": "app",
      "avatarUrls":       {
         "48x48": "https://secure.gravatar.com/avatar/726e9dfb98dfab7231aca0392486818d?d=https%3A%2F%2Favatar-management--avatars.us-west-2.prod.public.atl-paas.net%2Finitials%2FJW-2.png",
         "24x24": "https://secure.gravatar.com/avatar/726e9dfb98dfab7231aca0392486818d?d=https%3A%2F%2Favatar-management--avatars.us-west-2.prod.public.atl-paas.net%2Finitials%2FJW-2.png",
         "16x16": "https://secure.gravatar.com/avatar/726e9dfb98dfab7231aca0392486818d?d=https%3A%2F%2Favatar-management--avatars.us-west-2.prod.public.atl-paas.net%2Finitials%2FJW-2.png",
         "32x32": "https://secure.gravatar.com/avatar/726e9dfb98dfab7231aca0392486818d?d=https%3A%2F%2Favatar-management--avatars.us-west-2.prod.public.atl-paas.net%2Finitials%2FJW-2.png"
      },
      "displayName": "Jira Service Desk Widget",
      "active": true
   },
      {
      "self": "https://onthespot.atlassian.net/rest/api/3/user?accountId=557058:a58d38e7-89c9-4314-afa0-1208104fb3aa",
      "accountId": "557058:a58d38e7-89c9-4314-afa0-1208104fb3aa",
      "accountType": "atlassian",
      "avatarUrls":       {
         "48x48": "https://secure.gravatar.com/avatar/7991ebcc8a3b924e9c36a75d5aabc063?d=https%3A%2F%2Favatar-management--avatars.us-west-2.prod.public.atl-paas.net%2Finitials%2FD-1.png",
         "24x24": "https://secure.gravatar.com/avatar/7991ebcc8a3b924e9c36a75d5aabc063?d=https%3A%2F%2Favatar-management--avatars.us-west-2.prod.public.atl-paas.net%2Finitials%2FD-1.png",
         "16x16": "https://secure.gravatar.com/avatar/7991ebcc8a3b924e9c36a75d5aabc063?d=https%3A%2F%2Favatar-management--avatars.us-west-2.prod.public.atl-paas.net%2Finitials%2FD-1.png",
         "32x32": "https://secure.gravatar.com/avatar/7991ebcc8a3b924e9c36a75d5aabc063?d=https%3A%2F%2Favatar-management--avatars.us-west-2.prod.public.atl-paas.net%2Finitials%2FD-1.png"
      },
      "displayName": "DavidH",
      "active": false
   },
      {
      "self": "https://onthespot.atlassian.net/rest/api/3/user?accountId=557058:a64faebb-4be5-4527-8724-836159b1d3fb",
      "accountId": "557058:a64faebb-4be5-4527-8724-836159b1d3fb",
      "accountType": "atlassian",
      "avatarUrls":       {
         "48x48": "https://secure.gravatar.com/avatar/8d17e5c25607bb11cf3a1f0615613c7a?d=https%3A%2F%2Favatar-management--avatars.us-west-2.prod.public.atl-paas.net%2Finitials%2FAC-1.png",
         "24x24": "https://secure.gravatar.com/avatar/8d17e5c25607bb11cf3a1f0615613c7a?d=https%3A%2F%2Favatar-management--avatars.us-west-2.prod.public.atl-paas.net%2Finitials%2FAC-1.png",
         "16x16": "https://secure.gravatar.com/avatar/8d17e5c25607bb11cf3a1f0615613c7a?d=https%3A%2F%2Favatar-management--avatars.us-west-2.prod.public.atl-paas.net%2Finitials%2FAC-1.png",
         "32x32": "https://secure.gravatar.com/avatar/8d17e5c25607bb11cf3a1f0615613c7a?d=https%3A%2F%2Favatar-management--avatars.us-west-2.prod.public.atl-paas.net%2Finitials%2FAC-1.png"
      },
      "displayName": "Antonio Gonzalez C",
      "active": true,
      "locale": "es_ES"
   },
      {
      "self": "https://onthespot.atlassian.net/rest/api/3/user?accountId=557058:b18886c3-e42d-4e6a-9239-6cc9f390ced0",
      "accountId": "557058:b18886c3-e42d-4e6a-9239-6cc9f390ced0",
      "accountType": "atlassian",
      "avatarUrls":       {
         "48x48": "https://avatar-management--avatars.us-west-2.prod.public.atl-paas.net/557058:b18886c3-e42d-4e6a-9239-6cc9f390ced0/6abee04a-c88f-4d11-a507-ad30215b6684/48",
         "24x24": "https://avatar-management--avatars.us-west-2.prod.public.atl-paas.net/557058:b18886c3-e42d-4e6a-9239-6cc9f390ced0/6abee04a-c88f-4d11-a507-ad30215b6684/24",
         "16x16": "https://avatar-management--avatars.us-west-2.prod.public.atl-paas.net/557058:b18886c3-e42d-4e6a-9239-6cc9f390ced0/6abee04a-c88f-4d11-a507-ad30215b6684/16",
         "32x32": "https://avatar-management--avatars.us-west-2.prod.public.atl-paas.net/557058:b18886c3-e42d-4e6a-9239-6cc9f390ced0/6abee04a-c88f-4d11-a507-ad30215b6684/32"
      },
      "displayName": "chemajimenez",
      "active": true,
      "locale": "en"
   },
      {
      "self": "https://onthespot.atlassian.net/rest/api/3/user?accountId=557058:bda69cba-85c5-443d-845c-7278a528ecde",
      "accountId": "557058:bda69cba-85c5-443d-845c-7278a528ecde",
      "accountType": "atlassian",
      "avatarUrls":       {
         "48x48": "https://avatar-management--avatars.us-west-2.prod.public.atl-paas.net/557058:bda69cba-85c5-443d-845c-7278a528ecde/5ed74096-7a38-4be7-947b-b1235bacb085/48",
         "24x24": "https://avatar-management--avatars.us-west-2.prod.public.atl-paas.net/557058:bda69cba-85c5-443d-845c-7278a528ecde/5ed74096-7a38-4be7-947b-b1235bacb085/24",
         "16x16": "https://avatar-management--avatars.us-west-2.prod.public.atl-paas.net/557058:bda69cba-85c5-443d-845c-7278a528ecde/5ed74096-7a38-4be7-947b-b1235bacb085/16",
         "32x32": "https://avatar-management--avatars.us-west-2.prod.public.atl-paas.net/557058:bda69cba-85c5-443d-845c-7278a528ecde/5ed74096-7a38-4be7-947b-b1235bacb085/32"
      },
      "displayName": "Juan Alvarez",
      "active": false,
      "timeZone": "Europe/Madrid"
   },
      {
      "self": "https://onthespot.atlassian.net/rest/api/3/user?accountId=557058:c1a96105-45ed-44f4-a90f-65e90deb5a29",
      "accountId": "557058:c1a96105-45ed-44f4-a90f-65e90deb5a29",
      "accountType": "atlassian",
      "avatarUrls":       {
         "48x48": "https://avatar-management--avatars.us-west-2.prod.public.atl-paas.net/557058:c1a96105-45ed-44f4-a90f-65e90deb5a29/f34b71c0-e3f5-4707-8cc1-3843ad250830/48",
         "24x24": "https://avatar-management--avatars.us-west-2.prod.public.atl-paas.net/557058:c1a96105-45ed-44f4-a90f-65e90deb5a29/f34b71c0-e3f5-4707-8cc1-3843ad250830/24",
         "16x16": "https://avatar-management--avatars.us-west-2.prod.public.atl-paas.net/557058:c1a96105-45ed-44f4-a90f-65e90deb5a29/f34b71c0-e3f5-4707-8cc1-3843ad250830/16",
         "32x32": "https://avatar-management--avatars.us-west-2.prod.public.atl-paas.net/557058:c1a96105-45ed-44f4-a90f-65e90deb5a29/f34b71c0-e3f5-4707-8cc1-3843ad250830/32"
      },
      "displayName": "productoots",
      "active": true,
      "locale": "en"
   },
      {
      "self": "https://onthespot.atlassian.net/rest/api/3/user?accountId=557058:c65e6759-1c53-44ca-a4dc-b27fd97b8316",
      "accountId": "557058:c65e6759-1c53-44ca-a4dc-b27fd97b8316",
      "accountType": "atlassian",
      "avatarUrls":       {
         "48x48": "https://avatar-management--avatars.us-west-2.prod.public.atl-paas.net/557058:c65e6759-1c53-44ca-a4dc-b27fd97b8316/7917115d-21ad-4e38-96c6-cdb25b89af9c/48",
         "24x24": "https://avatar-management--avatars.us-west-2.prod.public.atl-paas.net/557058:c65e6759-1c53-44ca-a4dc-b27fd97b8316/7917115d-21ad-4e38-96c6-cdb25b89af9c/24",
         "16x16": "https://avatar-management--avatars.us-west-2.prod.public.atl-paas.net/557058:c65e6759-1c53-44ca-a4dc-b27fd97b8316/7917115d-21ad-4e38-96c6-cdb25b89af9c/16",
         "32x32": "https://avatar-management--avatars.us-west-2.prod.public.atl-paas.net/557058:c65e6759-1c53-44ca-a4dc-b27fd97b8316/7917115d-21ad-4e38-96c6-cdb25b89af9c/32"
      },
      "displayName": "Héctor Moya",
      "active": false
   },
      {
      "self": "https://onthespot.atlassian.net/rest/api/3/user?accountId=557058:cbc04d7b-be84-46eb-90e4-e567aa5332c6",
      "accountId": "557058:cbc04d7b-be84-46eb-90e4-e567aa5332c6",
      "accountType": "app",
      "avatarUrls":       {
         "48x48": "https://secure.gravatar.com/avatar/189be88917ebf55b8c24642ca8bb3f38?d=https%3A%2F%2Favatar-management--avatars.us-west-2.prod.public.atl-paas.net%2Fdefault-avatar-3.png",
         "24x24": "https://secure.gravatar.com/avatar/189be88917ebf55b8c24642ca8bb3f38?d=https%3A%2F%2Favatar-management--avatars.us-west-2.prod.public.atl-paas.net%2Fdefault-avatar-3.png",
         "16x16": "https://secure.gravatar.com/avatar/189be88917ebf55b8c24642ca8bb3f38?d=https%3A%2F%2Favatar-management--avatars.us-west-2.prod.public.atl-paas.net%2Fdefault-avatar-3.png",
         "32x32": "https://secure.gravatar.com/avatar/189be88917ebf55b8c24642ca8bb3f38?d=https%3A%2F%2Favatar-management--avatars.us-west-2.prod.public.atl-paas.net%2Fdefault-avatar-3.png"
      },
      "displayName": "Confluence Analytics (System)",
      "active": true
   },
      {
      "self": "https://onthespot.atlassian.net/rest/api/3/user?accountId=557058:d3e1e3e0-6aa6-4882-bbdf-ad3e8e5bccb1",
      "accountId": "557058:d3e1e3e0-6aa6-4882-bbdf-ad3e8e5bccb1",
      "accountType": "atlassian",
      "avatarUrls":       {
         "48x48": "https://secure.gravatar.com/avatar/607c6e8d4dfae79000163170c7cc8399?d=https%3A%2F%2Favatar-management--avatars.us-west-2.prod.public.atl-paas.net%2Finitials%2FA-0.png",
         "24x24": "https://secure.gravatar.com/avatar/607c6e8d4dfae79000163170c7cc8399?d=https%3A%2F%2Favatar-management--avatars.us-west-2.prod.public.atl-paas.net%2Finitials%2FA-0.png",
         "16x16": "https://secure.gravatar.com/avatar/607c6e8d4dfae79000163170c7cc8399?d=https%3A%2F%2Favatar-management--avatars.us-west-2.prod.public.atl-paas.net%2Finitials%2FA-0.png",
         "32x32": "https://secure.gravatar.com/avatar/607c6e8d4dfae79000163170c7cc8399?d=https%3A%2F%2Favatar-management--avatars.us-west-2.prod.public.atl-paas.net%2Finitials%2FA-0.png"
      },
      "displayName": "antonio.gilolea",
      "active": true
   },
      {
      "self": "https://onthespot.atlassian.net/rest/api/3/user?accountId=557058:d6b5955a-e193-41e1-b051-79cdb0755d68",
      "accountId": "557058:d6b5955a-e193-41e1-b051-79cdb0755d68",
      "accountType": "app",
      "avatarUrls":       {
         "48x48": "https://secure.gravatar.com/avatar/53e3e37950768a905d53cebdfcbd63e3?d=https%3A%2F%2Favatar-management--avatars.us-west-2.prod.public.atl-paas.net%2Finitials%2FT-1.png",
         "24x24": "https://secure.gravatar.com/avatar/53e3e37950768a905d53cebdfcbd63e3?d=https%3A%2F%2Favatar-management--avatars.us-west-2.prod.public.atl-paas.net%2Finitials%2FT-1.png",
         "16x16": "https://secure.gravatar.com/avatar/53e3e37950768a905d53cebdfcbd63e3?d=https%3A%2F%2Favatar-management--avatars.us-west-2.prod.public.atl-paas.net%2Finitials%2FT-1.png",
         "32x32": "https://secure.gravatar.com/avatar/53e3e37950768a905d53cebdfcbd63e3?d=https%3A%2F%2Favatar-management--avatars.us-west-2.prod.public.atl-paas.net%2Finitials%2FT-1.png"
      },
      "displayName": "Trello",
      "active": true
   },
      {
      "self": "https://onthespot.atlassian.net/rest/api/3/user?accountId=557058:dab5a787-5006-433d-861c-30e3d48cb1c5",
      "accountId": "557058:dab5a787-5006-433d-861c-30e3d48cb1c5",
      "accountType": "app",
      "avatarUrls":       {
         "48x48": "https://secure.gravatar.com/avatar/205fd60239c344ec77f8d44112c71c5d?d=https%3A%2F%2Favatar-management--avatars.us-west-2.prod.public.atl-paas.net%2Finitials%2FHJ-1.png",
         "24x24": "https://secure.gravatar.com/avatar/205fd60239c344ec77f8d44112c71c5d?d=https%3A%2F%2Favatar-management--avatars.us-west-2.prod.public.atl-paas.net%2Finitials%2FHJ-1.png",
         "16x16": "https://secure.gravatar.com/avatar/205fd60239c344ec77f8d44112c71c5d?d=https%3A%2F%2Favatar-management--avatars.us-west-2.prod.public.atl-paas.net%2Finitials%2FHJ-1.png",
         "32x32": "https://secure.gravatar.com/avatar/205fd60239c344ec77f8d44112c71c5d?d=https%3A%2F%2Favatar-management--avatars.us-west-2.prod.public.atl-paas.net%2Finitials%2FHJ-1.png"
      },
      "displayName": "Hiptest - BDD & Test Management for Jira",
      "active": true
   },
      {
      "self": "https://onthespot.atlassian.net/rest/api/3/user?accountId=557058:df4c5859-a2c5-4357-8d32-7c34a1e857fa",
      "accountId": "557058:df4c5859-a2c5-4357-8d32-7c34a1e857fa",
      "accountType": "atlassian",
      "avatarUrls":       {
         "48x48": "https://secure.gravatar.com/avatar/fd86680d16c24e42fb7a2286c00ef96d?d=https%3A%2F%2Favatar-management--avatars.us-west-2.prod.public.atl-paas.net%2Finitials%2FEM-2.png",
         "24x24": "https://secure.gravatar.com/avatar/fd86680d16c24e42fb7a2286c00ef96d?d=https%3A%2F%2Favatar-management--avatars.us-west-2.prod.public.atl-paas.net%2Finitials%2FEM-2.png",
         "16x16": "https://secure.gravatar.com/avatar/fd86680d16c24e42fb7a2286c00ef96d?d=https%3A%2F%2Favatar-management--avatars.us-west-2.prod.public.atl-paas.net%2Finitials%2FEM-2.png",
         "32x32": "https://secure.gravatar.com/avatar/fd86680d16c24e42fb7a2286c00ef96d?d=https%3A%2F%2Favatar-management--avatars.us-west-2.prod.public.atl-paas.net%2Finitials%2FEM-2.png"
      },
      "displayName": "Elsi Caldeira Mendes",
      "active": false
   },
      {
      "self": "https://onthespot.atlassian.net/rest/api/3/user?accountId=557058:e62fa524-d91f-439e-8b93-370fbe7be317",
      "accountId": "557058:e62fa524-d91f-439e-8b93-370fbe7be317",
      "accountType": "atlassian",
      "avatarUrls":       {
         "48x48": "https://secure.gravatar.com/avatar/d6d3ec94cc6bdc37ceefd55a7bbf5f39?d=https%3A%2F%2Favatar-management--avatars.us-west-2.prod.public.atl-paas.net%2Finitials%2FCR-6.png",
         "24x24": "https://secure.gravatar.com/avatar/d6d3ec94cc6bdc37ceefd55a7bbf5f39?d=https%3A%2F%2Favatar-management--avatars.us-west-2.prod.public.atl-paas.net%2Finitials%2FCR-6.png",
         "16x16": "https://secure.gravatar.com/avatar/d6d3ec94cc6bdc37ceefd55a7bbf5f39?d=https%3A%2F%2Favatar-management--avatars.us-west-2.prod.public.atl-paas.net%2Finitials%2FCR-6.png",
         "32x32": "https://secure.gravatar.com/avatar/d6d3ec94cc6bdc37ceefd55a7bbf5f39?d=https%3A%2F%2Favatar-management--avatars.us-west-2.prod.public.atl-paas.net%2Finitials%2FCR-6.png"
      },
      "displayName": "Carlos Royo",
      "active": false,
      "timeZone": "Europe/Madrid"
   },
      {
      "self": "https://onthespot.atlassian.net/rest/api/3/user?accountId=557058:e66733f5-626e-4c74-b103-976e1eeb3abb",
      "accountId": "557058:e66733f5-626e-4c74-b103-976e1eeb3abb",
      "accountType": "app",
      "avatarUrls":       {
         "48x48": "https://secure.gravatar.com/avatar/95d210896c061b13544fbc4ca6854f1e?d=https%3A%2F%2Favatar-management--avatars.us-west-2.prod.public.atl-paas.net%2Finitials%2FJC-4.png",
         "24x24": "https://secure.gravatar.com/avatar/95d210896c061b13544fbc4ca6854f1e?d=https%3A%2F%2Favatar-management--avatars.us-west-2.prod.public.atl-paas.net%2Finitials%2FJC-4.png",
         "16x16": "https://secure.gravatar.com/avatar/95d210896c061b13544fbc4ca6854f1e?d=https%3A%2F%2Favatar-management--avatars.us-west-2.prod.public.atl-paas.net%2Finitials%2FJC-4.png",
         "32x32": "https://secure.gravatar.com/avatar/95d210896c061b13544fbc4ca6854f1e?d=https%3A%2F%2Favatar-management--avatars.us-west-2.prod.public.atl-paas.net%2Finitials%2FJC-4.png"
      },
      "displayName": "Jira App for Chat",
      "active": true
   },
      {
      "self": "https://onthespot.atlassian.net/rest/api/3/user?accountId=557058:ebb28787-31ce-425d-ae51-99cb9886c855",
      "accountId": "557058:ebb28787-31ce-425d-ae51-99cb9886c855",
      "accountType": "atlassian",
      "avatarUrls":       {
         "48x48": "https://avatar-management--avatars.us-west-2.prod.public.atl-paas.net/557058:ebb28787-31ce-425d-ae51-99cb9886c855/2f484acc-5b70-4a63-b191-c85a8d03ee4a/48",
         "24x24": "https://avatar-management--avatars.us-west-2.prod.public.atl-paas.net/557058:ebb28787-31ce-425d-ae51-99cb9886c855/2f484acc-5b70-4a63-b191-c85a8d03ee4a/24",
         "16x16": "https://avatar-management--avatars.us-west-2.prod.public.atl-paas.net/557058:ebb28787-31ce-425d-ae51-99cb9886c855/2f484acc-5b70-4a63-b191-c85a8d03ee4a/16",
         "32x32": "https://avatar-management--avatars.us-west-2.prod.public.atl-paas.net/557058:ebb28787-31ce-425d-ae51-99cb9886c855/2f484acc-5b70-4a63-b191-c85a8d03ee4a/32"
      },
      "displayName": "Sergio Gonzalez Barrios",
      "active": false,
      "timeZone": "Europe/Madrid",
      "locale": "es_ES"
   },
      {
      "self": "https://onthespot.atlassian.net/rest/api/3/user?accountId=557058:ed9c43fd-9ff1-4d39-b35f-a099e302c363",
      "accountId": "557058:ed9c43fd-9ff1-4d39-b35f-a099e302c363",
      "accountType": "atlassian",
      "avatarUrls":       {
         "48x48": "https://secure.gravatar.com/avatar/beafc5054b74ab454a88c359f1355cf1?d=https%3A%2F%2Favatar-management--avatars.us-west-2.prod.public.atl-paas.net%2Finitials%2FCC-2.png",
         "24x24": "https://secure.gravatar.com/avatar/beafc5054b74ab454a88c359f1355cf1?d=https%3A%2F%2Favatar-management--avatars.us-west-2.prod.public.atl-paas.net%2Finitials%2FCC-2.png",
         "16x16": "https://secure.gravatar.com/avatar/beafc5054b74ab454a88c359f1355cf1?d=https%3A%2F%2Favatar-management--avatars.us-west-2.prod.public.atl-paas.net%2Finitials%2FCC-2.png",
         "32x32": "https://secure.gravatar.com/avatar/beafc5054b74ab454a88c359f1355cf1?d=https%3A%2F%2Favatar-management--avatars.us-west-2.prod.public.atl-paas.net%2Finitials%2FCC-2.png"
      },
      "displayName": "Carlos Javier Martinez Cebrian",
      "active": true,
      "timeZone": "Europe/Madrid",
      "locale": "en"
   },
      {
      "self": "https://onthespot.atlassian.net/rest/api/3/user?accountId=557058:f58131cb-b67d-43c7-b30d-6b58d40bd077",
      "accountId": "557058:f58131cb-b67d-43c7-b30d-6b58d40bd077",
      "accountType": "app",
      "avatarUrls":       {
         "48x48": "https://secure.gravatar.com/avatar/600529a9c8bfef89daa848e6db28ed2d?d=https%3A%2F%2Favatar-management--avatars.us-west-2.prod.public.atl-paas.net%2Finitials%2FAJ-0.png",
         "24x24": "https://secure.gravatar.com/avatar/600529a9c8bfef89daa848e6db28ed2d?d=https%3A%2F%2Favatar-management--avatars.us-west-2.prod.public.atl-paas.net%2Finitials%2FAJ-0.png",
         "16x16": "https://secure.gravatar.com/avatar/600529a9c8bfef89daa848e6db28ed2d?d=https%3A%2F%2Favatar-management--avatars.us-west-2.prod.public.atl-paas.net%2Finitials%2FAJ-0.png",
         "32x32": "https://secure.gravatar.com/avatar/600529a9c8bfef89daa848e6db28ed2d?d=https%3A%2F%2Favatar-management--avatars.us-west-2.prod.public.atl-paas.net%2Finitials%2FAJ-0.png"
      },
      "displayName": "Automation for Jira",
      "active": true
   },
      {
      "self": "https://onthespot.atlassian.net/rest/api/3/user?accountId=5a0973ca9ec0fc1b0dea626e",
      "accountId": "5a0973ca9ec0fc1b0dea626e",
      "accountType": "atlassian",
      "avatarUrls":       {
         "48x48": "https://avatar-management--avatars.us-west-2.prod.public.atl-paas.net/5a0973ca9ec0fc1b0dea626e/46781033-0c18-447e-a97f-d2584dac7d5f/48",
         "24x24": "https://avatar-management--avatars.us-west-2.prod.public.atl-paas.net/5a0973ca9ec0fc1b0dea626e/46781033-0c18-447e-a97f-d2584dac7d5f/24",
         "16x16": "https://avatar-management--avatars.us-west-2.prod.public.atl-paas.net/5a0973ca9ec0fc1b0dea626e/46781033-0c18-447e-a97f-d2584dac7d5f/16",
         "32x32": "https://avatar-management--avatars.us-west-2.prod.public.atl-paas.net/5a0973ca9ec0fc1b0dea626e/46781033-0c18-447e-a97f-d2584dac7d5f/32"
      },
      "displayName": "Javier Cañadilla",
      "active": true,
      "timeZone": "Europe/Madrid",
      "locale": "en_US"
   },
      {
      "self": "https://onthespot.atlassian.net/rest/api/3/user?accountId=5a1288b80f7d0f5b8de0383b",
      "accountId": "5a1288b80f7d0f5b8de0383b",
      "accountType": "atlassian",
      "avatarUrls":       {
         "48x48": "https://avatar-management--avatars.us-west-2.prod.public.atl-paas.net/5a1288b80f7d0f5b8de0383b/0f1b85dc-70f4-4bb2-b7a9-f236ac0f8eae/48",
         "24x24": "https://avatar-management--avatars.us-west-2.prod.public.atl-paas.net/5a1288b80f7d0f5b8de0383b/0f1b85dc-70f4-4bb2-b7a9-f236ac0f8eae/24",
         "16x16": "https://avatar-management--avatars.us-west-2.prod.public.atl-paas.net/5a1288b80f7d0f5b8de0383b/0f1b85dc-70f4-4bb2-b7a9-f236ac0f8eae/16",
         "32x32": "https://avatar-management--avatars.us-west-2.prod.public.atl-paas.net/5a1288b80f7d0f5b8de0383b/0f1b85dc-70f4-4bb2-b7a9-f236ac0f8eae/32"
      },
      "displayName": "José Miguel Moya Lázaro",
      "active": false,
      "timeZone": "Europe/Madrid",
      "locale": "es_ES"
   }
]