{
    "swagger": "2.0",
    "info": {
        "description": "OpenTDB API documentations",
        "version": "0.0.1",
        "title": "OpenTDB API",
        "termsOfService": "http://swagger.io/terms/",
        "contact": {
            "email": "apiteam@swagger.io"
        },
        "license": {
            "name": "Apache 2.0",
            "url": "http://www.apache.org/licenses/LICENSE-2.0.html"
        }
    },
    "host": "opentdb.com",
    "basePath": "/",
    "tags": [
        {
            "name": "card",
            "description": "request cards"
        },
        {
            "name": "category",
            "description": "questions categories"
        },
        {
            "name": "token",
            "description": "manage tokens"
        },
        {
            "name": "count",
            "description": "count api resources"
        }
    ],
    "schemes": [
        "https",
        "http"
    ],
    "paths": {
        "/api_category.php": {
            "get": {
                "tags": [
                    "category"
                ],
                "summary": "List categories",
                "description": "List categories",
                "operationId": "getCategories",
                "produces": [
                    "application/json"
                ],
                "parameters": [],
                "responses": {
                    "200": {
                        "description": "returns categories",
                        "schema": {
                            "$ref": "#/definitions/CategoriesResponse"
                        }
                    },
                    "400": {
                        "description": "fatal error"
                    }
                }
            }
        },
        "/api.php": {
            "get": {
                "tags": [
                    "card"
                ],
                "summary": "Get cards",
                "description": "Get cards",
                "operationId": "getCards",
                "produces": [
                    "application/json"
                ],
                "parameters": [
                    {
                        "name": "difficulty",
                        "in": "query",
                        "description": "select difficulty",
                        "required": false,
                        "type": "array",
                        "items": {
                            "type": "string",
                            "enum": [
                                "easy",
                                "medium",
                                "hard"
                            ],
                            "default": "medium"
                        },
                        "collectionFormat": "multi"
                    },
                    {
                        "name": "amount",
                        "in": "query",
                        "description": "amount of cards",
                        "required": true,
                        "type": "integer"
                    },
                    {
                        "name": "category",
                        "in": "query",
                        "description": "select category",
                        "required": false,
                        "type": "integer",
                        "format":"int32"
                    }

                ],
                "responses": {
                    "200": {
                        "description": "returns cards",
                        "schema": {
                            "$ref": "#/definitions/CardsResponse"
                        }
                    },
                    "400": {
                        "description": "fatal error"
                    }
                }
            }
        }
    },
    "securityDefinitions": {},
    "definitions": {
        "CategoriesResponse": {
            "type": "object",
            "properties": {
                "triviaCategories": {
                    "type": "array",
                    "items": {
                        "$ref": "#/definitions/Category"
                    }
                }
            }
        },
        "CardsResponse": {
            "type": "object",
            "properties": {
                "response_code":{
                    "type": "integer",
                    "format": "int64"
                },
                "results": {
                    "type": "array",
                    "items": {
                        "$ref": "#/definitions/Card"
                    }
                }
            }
        },
        "Card": {
            "type": "object",
            "properties": {
                "category": {
                    "type": "string"
                },
                "type": {
                    "type": "string"
                },
                "difficulty": {
                    "type": "string"
                },
                "question": {
                    "type": "string"
                },
                "correct_answer": {
                    "type": "string"
                },
                "incorrect_answers": {
                    "type": "array",
                    "items":{
                        "type": "string"
                    }
                }
            },
            "xml": {
                "name": "Category"
            }
        },
        "Category": {
            "type": "object",
            "properties": {
                "id": {
                    "type": "integer",
                    "format": "int64"
                },
                "name": {
                    "type": "string"
                }
            },
            "xml": {
                "name": "Category"
            }
        }
    },
    "externalDocs": {
        "description": "Find out more about Swagger",
        "url": "http://swagger.io"
    }
}